Programming R for Analytics: Final project
…
## Warning: 5 parsing failures.
##  row col               expected                 actual                                                                        file
## 1191 No. a double               Ye-u                   'https://www.andrew.cmu.edu/user/jweiss2/21f_r/94842/final_2021/fallen.csv'
## 1196 No. a double               Cher Thang Puia        'https://www.andrew.cmu.edu/user/jweiss2/21f_r/94842/final_2021/fallen.csv'
## 1200 No. a double               Aung Lwin              'https://www.andrew.cmu.edu/user/jweiss2/21f_r/94842/final_2021/fallen.csv'
## 1207 No. no trailing characters 1237 + 53 (Bago
Case) 'https://www.andrew.cmu.edu/user/jweiss2/21f_r/94842/final_2021/fallen.csv'
## 1208 No. a double               Total  1290            'https://www.andrew.cmu.edu/user/jweiss2/21f_r/94842/final_2021/fallen.csv'

detainees

## # A tibble: 6,709 x 13
##       No Name     Sex   Age   `Father's Name` Status           `Date of Arrest` 
##    <dbl> <chr>    <chr> <chr> <chr>           <chr>            <chr>            
##  1     1 "Aung S~ F     <NA>  General Aung S~ "MP (Pyithu\rHl~ "1-Feb-21"       
##  2     2 "Win My~ M     <NA>  U Tun Kyin      "MP (Pyithu\rHl~ "1-Feb-21"       
##  3     3 "Tun Tu~ M     <NA>  U Kya Hein      "MP (Pyithu\rHl~ "1-Feb-21 and 10~
##  4     4 "Dr. Za~ M     <NA>  U Chit Maung    "MP (Regional\r~ "1-Feb-21 and 7-~
##  5     5 "Win Th~ M     <NA>  U Soe           "MP (Regional\r~ "1-Feb-21 and 10~
##  6     6 "Dr. My~ M     <NA>  U Zaw           "MP (Regional\r~ "1-Feb-21 and 8-~
##  7     7 "Hla Mo~ M     <NA>  U Kyi Win       "MP (Regional\r~ "1-Feb-21"       
##  8     8 "Dr. Li~ M     <NA>  <NA>            "MP (State Hlut~ "1-Feb-21 and 10~
##  9     9 "Dr. Ay~ M     <NA>  U Kyaw Zan      "MP (State Hlut~ "1-Feb-21 and 8-~
## 10    10 "Dr. Kh~ M     <NA>  U Khet La       "MP (State Hlut~ "1-Feb-21 and 10~
## # ... with 6,699 more rows, and 6 more variables: Section of Law <chr>,
## #   Plaintiff <chr>, Current Condition <chr>, Address <chr>,
## #   Region/State <chr>, Remark <chr>
…
conflicts

## # A tibble: 14,188 x 18
##    event_date  year event_type sub_event_type actor1 assoc_actor_1 inter1 actor2
##    <chr>      <dbl> <chr>      <chr>          <chr>  <chr>          <dbl> <chr> 
##  1 19 Novemb~  2021 Battles    Armed clash    CDF: ~ People's Def~      3 Milit~
##  2 19 Novemb~  2021 Explosion~ Remote explos~ Peopl~ <NA>               3 Polic~
##  3 19 Novemb~  2021 Explosion~ Remote explos~ Unide~ <NA>               3 <NA>  
##  4 19 Novemb~  2021 Strategic~ Change to gro~ Milit~ Police Force~      1 <NA>  
##  5 19 Novemb~  2021 Strategic~ Looting/prope~ Milit~ <NA>               1 Civil~
##  6 19 Novemb~  2021 Protests   Peaceful prot~ Prote~ <NA>               6 <NA>  
##  7 19 Novemb~  2021 Protests   Peaceful prot~ Prote~ <NA>               6 <NA>  
##  8 19 Novemb~  2021 Protests   Peaceful prot~ Prote~ Women (Myanm~      6 <NA>  
##  9 19 Novemb~  2021 Protests   Peaceful prot~ Prote~ <NA>               6 <NA>  
## 10 19 Novemb~  2021 Protests   Peaceful prot~ Prote~ <NA>               6 <NA>  
## # ... with 14,178 more rows, and 10 more variables: assoc_actor_2 <chr>,
## #   inter2 <dbl>, interaction <dbl>, admin3 <chr>, latitude <dbl>,
## #   longitude <dbl>, source <chr>, notes <chr>, fatalities <dbl>,
## #   timestamp <dbl>
…
         starts_with("20"), Source_Name) %>%
  mutate(Indicator = paste(Indicator_Name, Indicator_Type, 
                           Sector, Unit, Source_Name, sep="|")) %>%
  select(1:3, Indicator, starts_with("20")) %>%
  pivot_longer(cols = starts_with("20"), 
               names_to = "Year", 
               values_to="Value") %>%
  filter(!is.na(Value)) %>%
  nest(data = -Indicator) %>%
  separate(Indicator, sep="\\|", 
           into = c("Indicator_Name", "Indicator_Type",
                    "Sector","Unit","Source_Name")) 
sector.nest

## # A tibble: 513 x 6
##    Indicator_Name      Indicator_Type   Sector   Unit  Source_Name    data      
##    <chr>               <chr>            <chr>    <chr> <chr>          <list>    
##  1 Area Sown under Gr~ Acres            Agricul~ Numb~ Vulnerability~ <tibble [~
##  2 Area Sown under Gr~ Acres            Agricul~ Numb~ Vulnerability~ <tibble [~
##  3 Area Sown under Pa~ Acres            Agricul~ Numb~ Vulnerability~ <tibble [~
##  4 Area Sown under Se~ Acres            Agricul~ Numb~ Vulnerability~ <tibble [~
##  5 Area Sown under Su~ Acres            Agricul~ Numb~ Vulnerability~ <tibble [~
##  6 Area Sown under Ur~ Acres            Agricul~ Numb~ Vulnerability~ <tibble [~
##  7 Harvested Area      Acres (Green Gr~ Agricul~ Numb~ Vulnerability~ <tibble [~
##  8 Harvested Area      Acres (Ground-n~ Agricul~ Numb~ Vulnerability~ <tibble [~
##  9 Harvested Area      Acres (Paddy)    Agricul~ Numb~ Vulnerability~ <tibble [~
## 10 Harvested Area      Acres (Sesame)   Agricul~ Numb~ Vulnerability~ <tibble [~
## # ... with 503 more rows
…
